../submission/2a8e475c69743bafd7ddf81c6075e884478f551f956cb869bd28cb23fa29c714.cpp:135:5: warning: second argument of ‘int main(int, unsigned char**)’ should be ‘char **’ [-Wmain]
  135 | int main(int argc,unsigned char ** argv)
      |     ^~~~
../submission/2a8e475c69743bafd7ddf81c6075e884478f551f956cb869bd28cb23fa29c714.cpp: In function ‘int main(int, unsigned char**)’:
../submission/2a8e475c69743bafd7ddf81c6075e884478f551f956cb869bd28cb23fa29c714.cpp:154:51: warning: invalid conversion from ‘unsigned char*’ to ‘const char*’ [-fpermissive]
  154 |   outsize = (unsigned long long int)strnlen(argv[1],88);
      |                                             ~~~~~~^
      |                                                   |
      |                                                   unsigned char*
In file included from ../submission/2a8e475c69743bafd7ddf81c6075e884478f551f956cb869bd28cb23fa29c714.cpp:4:
/usr/include/string.h:391:36: note:   initializing argument 1 of ‘size_t strnlen(const char*, size_t)’
  391 | extern size_t strnlen (const char *__string, size_t __maxlen)
      |                        ~~~~~~~~~~~~^~~~~~~~
